\relax 
\@writefile{lof}{\contentsline {figure}{\numberline {1}{\ignorespaces Found in the Circuit section}}{1}}
\@writefile{lof}{\contentsline {figure}{\numberline {2}{\ignorespaces Found in the Patterns section}}{2}}
\@writefile{lof}{\contentsline {figure}{\numberline {3}{\ignorespaces Found in Patterns section}}{3}}
\@writefile{lof}{\contentsline {figure}{\numberline {4}{\ignorespaces Found in the 3D section}}{4}}
\@writefile{lof}{\contentsline {figure}{\numberline {5}{\ignorespaces Found in the 3D section}}{5}}
