\relax 
\providecommand\hyper@newdestlabel[2]{}
\providecommand\HyperFirstAtBeginDocument{\AtBeginDocument}
\HyperFirstAtBeginDocument{\ifx\hyper@anchor\@undefined
\global\let\oldcontentsline\contentsline
\gdef\contentsline#1#2#3#4{\oldcontentsline{#1}{#2}{#3}}
\global\let\oldnewlabel\newlabel
\gdef\newlabel#1#2{\newlabelxx{#1}#2}
\gdef\newlabelxx#1#2#3#4#5#6{\oldnewlabel{#1}{{#2}{#3}}}
\AtEndDocument{\ifx\hyper@anchor\@undefined
\let\contentsline\oldcontentsline
\let\newlabel\oldnewlabel
\fi}
\fi}
\global\let\hyper@last\relax 
\gdef\HyperFirstAtBeginDocument#1{#1}
\providecommand\HyField@AuxAddToFields[1]{}
\providecommand\HyField@AuxAddToCoFields[2]{}
\@writefile{toc}{\beamer@endinputifotherversion {3.36pt}}
\@writefile{nav}{\beamer@endinputifotherversion {3.36pt}}
\@writefile{nav}{\headcommand {\slideentry {0}{0}{1}{1/1}{}{0}}}
\@writefile{nav}{\headcommand {\beamer@framepages {1}{1}}}
\@writefile{nav}{\headcommand {\slideentry {0}{0}{2}{2/2}{}{0}}}
\@writefile{nav}{\headcommand {\beamer@framepages {2}{2}}}
\@writefile{nav}{\headcommand {\slideentry {0}{0}{3}{3/3}{}{0}}}
\@writefile{nav}{\headcommand {\beamer@framepages {3}{3}}}
\newlabel{Flower<1>}{{4}{4}{}{Doc-Start}{}}
\@writefile{snm}{\beamer@slide {Flower<1>}{4}}
\newlabel{Flower}{{4}{4}{}{Doc-Start}{}}
\@writefile{snm}{\beamer@slide {Flower}{4}}
\@writefile{nav}{\headcommand {\slideentry {0}{0}{4}{4/4}{}{0}}}
\@writefile{nav}{\headcommand {\beamer@framepages {4}{4}}}
\newlabel{Overlays<1>}{{5}{5}{}{Doc-Start}{}}
\@writefile{snm}{\beamer@slide {Overlays<1>}{5}}
\newlabel{Overlays}{{5}{5}{}{Doc-Start}{}}
\@writefile{snm}{\beamer@slide {Overlays}{5}}
\newlabel{Overlays<2>}{{5}{6}{}{Doc-Start}{}}
\@writefile{snm}{\beamer@slide {Overlays<2>}{6}}
\newlabel{Overlays<3>}{{5}{7}{}{Doc-Start}{}}
\@writefile{snm}{\beamer@slide {Overlays<3>}{7}}
\newlabel{Overlays<4>}{{5}{8}{}{Doc-Start}{}}
\@writefile{snm}{\beamer@slide {Overlays<4>}{8}}
\newlabel{Overlays<5>}{{5}{9}{}{Doc-Start}{}}
\@writefile{snm}{\beamer@slide {Overlays<5>}{9}}
\@writefile{nav}{\headcommand {\slideentry {0}{0}{5}{5/9}{}{0}}}
\@writefile{nav}{\headcommand {\beamer@framepages {5}{9}}}
\@writefile{nav}{\headcommand {\slideentry {0}{0}{6}{10/10}{}{0}}}
\@writefile{nav}{\headcommand {\beamer@framepages {10}{10}}}
\@writefile{nav}{\headcommand {\beamer@partpages {1}{10}}}
\@writefile{nav}{\headcommand {\beamer@subsectionpages {1}{10}}}
\@writefile{nav}{\headcommand {\beamer@sectionpages {1}{10}}}
\@writefile{nav}{\headcommand {\beamer@documentpages {10}}}
\@writefile{nav}{\headcommand {\def \inserttotalframenumber {6}}}
