\relax 
\@writefile{toc}{\contentsline {section}{\numberline {1}Introduction}{1}}
\newlabel{sec:introduction}{{1}{1}}
\bibdata{senior_thesis_proposal}
\@writefile{toc}{\contentsline {section}{\numberline {2}Verbatim}{2}}
\newlabel{sec: verbatism}{{2}{2}}
\@writefile{toc}{\contentsline {section}{\numberline {3}Two paragraphs of plain text}{2}}
\newlabel{sec:paragraphs}{{3}{2}}
