\relax 
\citation{greenwood2009using}
\citation{kumar2011developing}
\newlabel{sec:Abstarct}{{}{1}}
\@writefile{toc}{\contentsline {section}{\numberline {1}Introduction}{1}}
\newlabel{sec:introduction}{{1}{1}}
\@writefile{toc}{\contentsline {section}{\numberline {2}Related Work}{1}}
\newlabel{sec:relatedwork}{{2}{1}}
\citation{hu2012pathfinding}
\citation{craighead2008using}
\citation{abramson2001robotic}
\@writefile{toc}{\contentsline {section}{\numberline {3}Method of Approach}{2}}
\newlabel{sec:method}{{3}{2}}
\@writefile{toc}{\contentsline {section}{\numberline {4}Research Schedule}{3}}
\newlabel{sec:schedule}{{4}{3}}
\@writefile{toc}{\contentsline {section}{\numberline {5}Evaluation Strategy}{3}}
\newlabel{sec:evaluate}{{5}{3}}
\@writefile{toc}{\contentsline {section}{\numberline {6}Conclusion}{4}}
\newlabel{sec:conclusion}{{6}{4}}
\bibdata{proposalM2}
\bibcite{abramson2001robotic}{1}
\bibcite{craighead2008using}{2}
\bibcite{greenwood2009using}{3}
\bibcite{hu2012pathfinding}{4}
\bibcite{kumar2011developing}{5}
\bibstyle{plain}
