\relax 
\@writefile{toc}{\contentsline {section}{\numberline {1}Chapter 1}{1}}
\newlabel{Chapter 1}{{1}{1}}
\@writefile{toc}{\contentsline {section}{\numberline {2}Chapter 2}{1}}
\newlabel{Chapter 2}{{2}{1}}
