\relax 
\@writefile{toc}{\contentsline {section}{\numberline {1}Virtual Mutation Analysis of Relational Database Schemas}{1}}
\@writefile{toc}{\contentsline {section}{\numberline {2}SchemaAnalyst: Search-Based Test Data Generation for Relational Database Schemas}{1}}
