\relax 
\@writefile{lof}{\contentsline {figure}{\numberline {1}{\ignorespaces Bar chart with changed colors}}{2}}
\newlabel{Figure 1}{{1}{2}}
\@writefile{lof}{\contentsline {figure}{\numberline {2}{\ignorespaces Histogram plot where colors and random's value was changed}}{3}}
\@writefile{lof}{\contentsline {figure}{\numberline {3}{\ignorespaces Dot plot where t1 and t2's values were changed to 7 and the shape bo was changed to 4}}{3}}
\@writefile{lof}{\contentsline {figure}{\numberline {4}{\ignorespaces Line grpah where I changed the spelling}}{4}}
\@writefile{lof}{\contentsline {figure}{\numberline {5}{\ignorespaces Dot plot where I changed dimesnion 15 to 50}}{4}}
\@writefile{lof}{\contentsline {figure}{\numberline {6}{\ignorespaces Dot plot where I changed the shapes to tri folds}}{5}}
\@writefile{lof}{\contentsline {figure}{\numberline {7}{\ignorespaces Box plot where I changed the random to be multiplied by 1000 and and dimesnion to -5.5}}{5}}
\@writefile{lof}{\contentsline {figure}{\numberline {8}{\ignorespaces Scatter plot where I changed a parameter from 1 to 10}}{6}}
