This is BibTeX, Version 0.99d (TeX Live 2015/Debian)
Capacity: max_strings=35307, hash_size=35307, hash_prime=30011
The top-level auxiliary file: assignment11.aux
The style file: plain.bst
Database file #1: assignment11.bib
You've used 4 entries,
            2118 wiz_defined-function locations,
            523 strings with 5018 characters,
and the built_in function-call counts, 1734 in all, are:
= -- 173
> -- 82
< -- 2
+ -- 33
- -- 28
* -- 118
:= -- 272
add.period$ -- 14
call.type$ -- 4
change.case$ -- 26
chr.to.int$ -- 0
cite$ -- 4
duplicate$ -- 71
empty$ -- 137
format.name$ -- 28
if$ -- 378
int.to.chr$ -- 0
int.to.str$ -- 4
missing$ -- 4
newline$ -- 23
num.names$ -- 8
pop$ -- 34
preamble$ -- 1
purify$ -- 22
quote$ -- 0
skip$ -- 50
stack$ -- 0
substring$ -- 107
swap$ -- 25
text.length$ -- 2
text.prefix$ -- 0
top$ -- 0
type$ -- 16
warning$ -- 0
while$ -- 16
width$ -- 5
write$ -- 47
