\relax 
\citation{greenwood2009using}
\citation{kumar2011developing}
\@writefile{toc}{\contentsline {section}{\numberline {1}Introduction}{1}}
\newlabel{sec:introduction}{{1}{1}}
\@writefile{toc}{\contentsline {section}{\numberline {2}Related Work}{1}}
\newlabel{sec:relatedwork}{{2}{1}}
\citation{hu2012pathfinding}
\citation{craighead2008using}
\@writefile{toc}{\contentsline {section}{\numberline {3}Method of Approach}{2}}
\newlabel{sec:method}{{3}{2}}
\@writefile{toc}{\contentsline {section}{\numberline {4}Evaluation Strategy}{2}}
\newlabel{sec:evaluate}{{4}{2}}
\bibdata{assignment11}
\bibcite{craighead2008using}{1}
\bibcite{greenwood2009using}{2}
\bibcite{hu2012pathfinding}{3}
\bibcite{kumar2011developing}{4}
\bibstyle{plain}
\@writefile{toc}{\contentsline {section}{\numberline {5}Research Schedule}{3}}
\newlabel{sec:schedule}{{5}{3}}
\@writefile{toc}{\contentsline {section}{\numberline {6}Conclusion}{3}}
\newlabel{sec:conclusion}{{6}{3}}
